{"collection":[{"id":7315454,"type":"builtin_page","created_at":"2023-10-26T15:38:53Z","updated_at":"2023-10-26T15:38:53Z","title":"Show","system_name":"dashboards/show","layout_id":7315434},{"id":7315455,"type":"builtin_page","created_at":"2023-10-26T15:38:53Z","updated_at":"2023-10-26T15:38:53Z","title":"New","system_name":"password/new","layout_id":7315434},{"id":7315456,"type":"builtin_page","created_at":"2023-10-26T15:38:53Z","updated_at":"2023-10-26T15:38:53Z","title":"Show","system_name":"password/show","layout_id":7315434},{"id":7315457,"type":"builtin_page","created_at":"2023-10-26T15:38:53Z","updated_at":"2023-10-26T15:38:53Z","title":"New","system_name":"login/new","layout_id":7315434},{"id":7315458,"type":"builtin_partial","created_at":"2023-10-26T15:38:53Z","updated_at":"2023-10-26T15:38:53Z","system_name":"login/sso"},{"id":7315459,"type":"builtin_page","created_at":"2023-10-26T15:38:53Z","updated_at":"2023-10-26T15:38:53Z","title":"Show","system_name":"signup/show","layout_id":7315434},{"id":7315460,"type":"builtin_page","created_at":"2023-10-26T15:38:53Z","updated_at":"2023-10-26T15:38:53Z","title":"Success","system_name":"signup/success","layout_id":7315434},{"id":7315461,"type":"builtin_partial","created_at":"2023-10-26T15:38:53Z","updated_at":"2023-10-26T15:38:53Z","system_name":"signup/cas"},{"id":7315462,"type":"builtin_partial","created_at":"2023-10-26T15:38:53Z","updated_at":"2023-10-26T15:38:53Z","system_name":"messages/menu"},{"id":7315463,"type":"builtin_page","created_at":"2023-10-26T15:38:53Z","updated_at":"2023-10-26T15:38:53Z","title":"Index","system_name":"messages/outbox/index","layout_id":7315434},{"id":7315464,"type":"builtin_page","created_at":"2023-10-26T15:38:53Z","updated_at":"2023-10-26T15:38:53Z","title":"Show","system_name":"messages/outbox/show","layout_id":7315434},{"id":7315465,"type":"builtin_page","created_at":"2023-10-26T15:38:53Z","updated_at":"2023-10-26T15:38:53Z","title":"New","system_name":"messages/outbox/new","layout_id":7315434},{"id":7315466,"type":"builtin_page","created_at":"2023-10-26T15:38:53Z","updated_at":"2023-10-26T15:38:53Z","title":"Index","system_name":"messages/inbox/index","layout_id":7315434},{"id":7315467,"type":"builtin_page","created_at":"2023-10-26T15:38:53Z","updated_at":"2023-10-26T15:38:53Z","title":"Show","system_name":"messages/inbox/show","layout_id":7315434},{"id":7315468,"type":"builtin_page","created_at":"2023-10-26T15:38:53Z","updated_at":"2023-10-26T15:38:53Z","title":"Index","system_name":"messages/trash/index","layout_id":7315434},{"id":7315469,"type":"builtin_page","created_at":"2023-10-26T15:38:53Z","updated_at":"2023-10-26T15:38:53Z","title":"Show","system_name":"messages/trash/show","layout_id":7315434},{"id":7315470,"type":"builtin_partial","created_at":"2023-10-26T15:38:53Z","updated_at":"2023-10-26T15:38:53Z","system_name":"stats/chart"},{"id":7315471,"type":"builtin_page","created_at":"2023-10-26T15:38:53Z","updated_at":"2023-10-26T15:38:53Z","title":"Index","system_name":"stats/index","layout_id":7315434},{"id":7315472,"type":"builtin_partial","created_at":"2023-10-26T15:38:53Z","updated_at":"2023-10-26T15:38:53Z","system_name":"applications/form"},{"id":7315473,"type":"builtin_page","created_at":"2023-10-26T15:38:53Z","updated_at":"2023-10-26T15:38:53Z","title":"Edit","system_name":"applications/edit","layout_id":7315434}],"metadata":{"per_page":20,"total_entries":65,"total_pages":4,"current_page":2}}