{"collection":[{"id":7315474,"type":"builtin_page","created_at":"2023-10-26T15:38:53Z","updated_at":"2023-10-26T15:38:53Z","title":"Show","system_name":"applications/show","layout_id":7315434},{"id":7315475,"type":"builtin_page","created_at":"2023-10-26T15:38:53Z","updated_at":"2023-10-26T15:38:53Z","title":"Index","system_name":"applications/index","layout_id":7315434},{"id":7315476,"type":"builtin_page","created_at":"2023-10-26T15:38:53Z","updated_at":"2023-10-26T15:38:53Z","title":"Index","system_name":"applications/alerts/index","layout_id":7315434},{"id":7315477,"type":"builtin_page","created_at":"2023-10-26T15:38:53Z","updated_at":"2023-10-26T15:38:53Z","title":"Index","system_name":"invoices/index","layout_id":7315434},{"id":7315478,"type":"builtin_page","created_at":"2023-10-26T15:38:53Z","updated_at":"2023-10-26T15:38:53Z","title":"Show","system_name":"invoices/show","layout_id":7315434},{"id":7315479,"type":"builtin_page","created_at":"2023-10-26T15:38:53Z","updated_at":"2023-10-26T15:38:53Z","title":"Index","system_name":"account_plans/index","layout_id":7315434},{"id":7315480,"type":"builtin_page","created_at":"2023-10-26T15:38:53Z","updated_at":"2023-10-26T15:38:53Z","title":"Index","system_name":"accounts/plan_changes/index","layout_id":7315434},{"id":7315481,"type":"builtin_page","created_at":"2023-10-26T15:38:53Z","updated_at":"2023-10-26T15:38:53Z","title":"Show","system_name":"account/show","layout_id":7315434},{"id":7315482,"type":"builtin_page","created_at":"2023-10-26T15:38:53Z","updated_at":"2023-10-26T15:38:53Z","title":"Edit","system_name":"account/edit","layout_id":7315434},{"id":7315483,"type":"builtin_page","created_at":"2023-10-26T15:38:53Z","updated_at":"2023-10-26T15:38:53Z","title":"Index","system_name":"accounts/users/index","layout_id":7315434},{"id":7315484,"type":"builtin_page","created_at":"2023-10-26T15:38:53Z","updated_at":"2023-10-26T15:38:53Z","title":"Edit","system_name":"accounts/users/edit","layout_id":7315434},{"id":7315485,"type":"builtin_page","created_at":"2023-10-26T15:38:53Z","updated_at":"2023-10-26T15:38:53Z","title":"Show","system_name":"user/show","layout_id":7315434},{"id":7315486,"type":"builtin_page","created_at":"2023-10-26T15:38:53Z","updated_at":"2023-10-26T15:38:53Z","title":"Index","system_name":"search/index","layout_id":7315434},{"id":7315487,"type":"builtin_page","created_at":"2023-10-26T15:38:53Z","updated_at":"2023-10-26T15:38:53Z","title":"Index","system_name":"invitations/index","layout_id":7315434},{"id":7315488,"type":"builtin_page","created_at":"2023-10-26T15:38:53Z","updated_at":"2023-10-26T15:38:53Z","title":"New","system_name":"invitations/new","layout_id":7315434},{"id":7315489,"type":"builtin_page","created_at":"2023-10-26T15:38:53Z","updated_at":"2023-10-26T15:38:53Z","title":"Edit","system_name":"accounts/payment_gateways/edit","layout_id":7315434},{"id":7315490,"type":"builtin_page","created_at":"2023-10-26T15:38:53Z","updated_at":"2023-10-26T15:38:53Z","title":"Show","system_name":"accounts/payment_gateways/show","layout_id":7315434},{"id":7315491,"type":"builtin_page","created_at":"2023-10-26T15:38:53Z","updated_at":"2023-10-26T15:38:53Z","title":"Not found","system_name":"errors/not_found","layout_id":7315435},{"id":7315492,"type":"builtin_page","created_at":"2023-10-26T15:38:53Z","updated_at":"2023-10-26T15:38:53Z","title":"Internal server error","system_name":"errors/internal_server_error","layout_id":7315435},{"id":7315493,"type":"builtin_page","created_at":"2023-10-26T15:38:53Z","updated_at":"2023-10-26T15:38:53Z","title":"Forbidden","system_name":"errors/forbidden","layout_id":7315435}],"metadata":{"per_page":20,"total_entries":65,"total_pages":4,"current_page":3}}