{"collection":[{"id":7315494,"type":"builtin_page","created_at":"2023-10-26T15:38:53Z","updated_at":"2023-10-26T15:38:53Z","title":"Show","system_name":"accounts/invitee_signups/show","layout_id":7315434},{"id":7315498,"type":"builtin_page","created_at":"2023-10-27T07:39:37Z","updated_at":"2023-10-27T07:39:37Z","title":"New","system_name":"applications/new","layout_id":7315434},{"id":7315499,"type":"builtin_page","created_at":"2023-10-27T07:39:37Z","updated_at":"2023-10-27T07:39:37Z","title":"Choose service","system_name":"applications/choose_service","layout_id":7315434},{"id":7315500,"type":"builtin_page","created_at":"2023-10-27T07:39:37Z","updated_at":"2023-10-27T07:39:37Z","title":"New","system_name":"services/new","layout_id":7315434},{"id":7315501,"type":"builtin_page","created_at":"2023-10-27T07:39:37Z","updated_at":"2023-10-27T07:39:37Z","title":"Index","system_name":"services/index","layout_id":7315434}],"metadata":{"per_page":20,"total_entries":65,"total_pages":4,"current_page":4}}