{"collection":[{"id":2675732,"created_at":"2023-10-26T15:38:53Z","updated_at":"2023-10-26T15:38:53Z","title":"Search","system_name":"search","public":true,"parent_id":2675712,"partial_path":"/search"},{"id":2675733,"created_at":"2023-10-26T15:38:53Z","updated_at":"2023-10-26T15:38:53Z","title":"Invitations","system_name":"invitations","public":true,"parent_id":2675712,"partial_path":"/invitations"},{"id":2675734,"created_at":"2023-10-26T15:38:53Z","updated_at":"2023-10-26T15:38:53Z","title":"Payment Gateway","system_name":"payment-gateway","public":true,"parent_id":2675712,"partial_path":"/payment_gateway"},{"id":2675735,"created_at":"2023-10-26T15:38:53Z","updated_at":"2023-10-26T15:38:53Z","title":"Errors","system_name":"errors","public":true,"parent_id":2675712,"partial_path":"/errors"},{"id":2675736,"created_at":"2023-10-26T15:38:53Z","updated_at":"2023-10-26T15:38:53Z","title":"Invitee signups","system_name":"invitee-signups","public":true,"parent_id":2675712,"partial_path":"/invitee_signups"},{"id":2675737,"created_at":"2023-10-27T07:39:37Z","updated_at":"2023-10-27T07:39:37Z","title":"Services","system_name":"services","public":true,"parent_id":2675712,"partial_path":"/services"}],"metadata":{"per_page":20,"total_entries":26,"total_pages":2,"current_page":2}}